Dicas para visualizar e transformar os dados
…
Dicas para visualizar e transformar os dados

atividade = read_projectdata()

Temos bastante NA

Quando um parlamentar no tem conta no twitter, o valor da coluna twitter  NA, Not Available. Quando voc estiver interessado apenas em quem tem twitter,  preciso filtr-los.

atividade %>% 
  filter(!is.na(twitter))

## # A tibble: 549 x 19
##    id_parlamentar casa  nome_eleitoral partido UF    twitter seguidores
##    <chr>          <chr> <chr>          <chr>   <chr> <chr>        <dbl>
##  1 204554         cma ABLIO SANTANA PR      BA    Abilio         NA
##  2 204521         cma ABOU ANNI      PSL     SP    abouan         NA
##  3 204379         cma ACCIO FAVACHO PROS    AP    Favach         NA
##  4 204560         cma ADOLFO VIANA   PSDB    BA    Adolfo         NA
##  5 204528         cma ADRIANA VENTU NOVO    SP    adrian       4652
##  6 121948         cma ADRIANO DO BA PP      GO    Adrian         NA
##  7 74646          cma ACIO NEVES    PSDB    MG    AecioN         NA
##  8 160508         cma AFONSO FLOREN PT      BA    Afonso         NA
##  9 136811         cma AFONSO HAMM    PP      RS    depafo         NA
## 10 178835         cma AFONSO MOTTA   PDT     RS    afonso         NA
## #  with 539 more rows, and 12 more variables: segue <dbl>,
## #   n_proprio <dbl>, n_retweet <dbl>, engaj_total <dbl>,
## #   engaj_total_proprio <dbl>, engaj_total_retweet <dbl>,
## #   engaj_mediano <dbl>, engaj_mediano_proprio <dbl>,
## #   engaj_mediano_retweet <dbl>, engaj_max <dbl>, engaj_max_proprio <dbl>,
## #   engaj_max_retweet <dbl>
…
atividade = atividade %>% 
  filter(!is.na(twitter), !is.na(seguidores), engaj_total > 0, !is.na(n_retweet), !is.na(segue), !is.na(n_proprio), segue > 0, n_proprio>0, seguidores > 0, n_retweet > 0)
atividade = atividade %>% mutate(engaj_log=log10(engaj_total)) %>% mutate(seguidores_log=log10(seguidores)) %>% 
  mutate(retweet_log = log10(n_retweet)) %>% mutate(proprio_log=log10(n_proprio)) %>% mutate(segue_log=log10(segue))
atividade

## # A tibble: 295 x 24
##    id_parlamentar casa  nome_eleitoral partido UF    twitter seguidores
##    <chr>          <chr> <chr>          <chr>   <chr> <chr>        <dbl>
##  1 204528         cma ADRIANA VENTU NOVO    SP    adrian       4652
##  2 178836         cma ALAN RICK      DEM     AC    Alan_R       3983
##  3 160559         cma ALCEU MOREIRA  MDB     RS    Alceu_       6370
##  4 204545         cma AL SILVA      PSL     MG    oficia        464
##  5 204501         cma ALENCAR SANTA PT      SP    Alenca       6447
##  6 204544         cma ALEXANDRE FRO PSL     SP    alefro     161745
##  7 160545         cma ALEXANDRE LEI DEM     SP    lexand       1134
##  8 204503         cma ALEXANDRE PAD PT      SP    padilh     147085
##  9 178833         cma ALEXANDRE SER PSD     RJ    AleSer        880
## 10 204516         cma ALEXIS FONTEY NOVO    SP    Alexis       6417
## #  with 285 more rows, and 17 more variables: segue <dbl>,
## #   n_proprio <dbl>, n_retweet <dbl>, engaj_total <dbl>,
## #   engaj_total_proprio <dbl>, engaj_total_retweet <dbl>,
## #   engaj_mediano <dbl>, engaj_mediano_proprio <dbl>,
## #   engaj_mediano_retweet <dbl>, engaj_max <dbl>, engaj_max_proprio <dbl>,
## #   engaj_max_retweet <dbl>, engaj_log <dbl>, seguidores_log <dbl>,
## #   retweet_log <dbl>, proprio_log <dbl>, segue_log <dbl>
…
## # A tibble: 1 x 11
##   r.squared adj.r.squared sigma statistic  p.value    df logLik   AIC   BIC
##       <dbl>         <dbl> <dbl>     <dbl>    <dbl> <int>  <dbl> <dbl> <dbl>
## 1     0.714         0.709 0.707      144. 2.60e-76     6  -313.  640.  666.
## #  with 2 more variables: deviance <dbl>, df.residual <int>

atividade = read_projectdata()
atividade = atividade %>% 
  filter(!is.na(twitter), !is.na(seguidores), engaj_mediano > 0, !is.na(n_retweet), !is.na(segue), !is.na(n_proprio), segue > 0, n_proprio>0, seguidores > 0, n_retweet > 0)
atividade = atividade %>% mutate(engaj_log=log10(engaj_mediano)) %>% mutate(seguidores_log=log10(seguidores)) %>% 
  mutate(retweet_log = log10(n_retweet)) %>% mutate(proprio_log=log10(n_proprio)) %>% mutate(segue_log=log10(segue))
atividade

## # A tibble: 290 x 24
##    id_parlamentar casa  nome_eleitoral partido UF    twitter seguidores
##    <chr>          <chr> <chr>          <chr>   <chr> <chr>        <dbl>
##  1 204528         cma ADRIANA VENTU NOVO    SP    adrian       4652
##  2 178836         cma ALAN RICK      DEM     AC    Alan_R       3983
##  3 160559         cma ALCEU MOREIRA  MDB     RS    Alceu_       6370
##  4 204545         cma AL SILVA      PSL     MG    oficia        464
##  5 204501         cma ALENCAR SANTA PT      SP    Alenca       6447
##  6 204544         cma ALEXANDRE FRO PSL     SP    alefro     161745
##  7 204503         cma ALEXANDRE PAD PT      SP    padilh     147085
##  8 178833         cma ALEXANDRE SER PSD     RJ    AleSer        880
##  9 204516         cma ALEXIS FONTEY NOVO    SP    Alexis       6417
## 10 74057          cma ALICE PORTUGAL PCdoB   BA    Alice_      17686
## #  with 280 more rows, and 17 more variables: segue <dbl>,
## #   n_proprio <dbl>, n_retweet <dbl>, engaj_total <dbl>,
## #   engaj_total_proprio <dbl>, engaj_total_retweet <dbl>,
## #   engaj_mediano <dbl>, engaj_mediano_proprio <dbl>,
## #   engaj_mediano_retweet <dbl>, engaj_max <dbl>, engaj_max_proprio <dbl>,
## #   engaj_max_retweet <dbl>, engaj_log <dbl>, seguidores_log <dbl>,
## #   retweet_log <dbl>, proprio_log <dbl>, segue_log <dbl>
…
